%YAML 1.1
%TAG !u! tag:unity3d.com,2011:
--- !u!74 &7400000
AnimationClip:
  m_ObjectHideFlags: 0
  m_PrefabParentObject: {fileID: 0}
  m_PrefabInternal: {fileID: 0}
  m_Name: EnemyC_ATK_A
  serializedVersion: 6
  m_Legacy: 0
  m_Compressed: 0
  m_UseHighQualityCurve: 1
  m_RotationCurves: []
  m_CompressedRotationCurves: []
  m_EulerCurves: []
  m_PositionCurves: []
  m_ScaleCurves: []
  m_FloatCurves:
  - curve:
      serializedVersion: 2
      m_Curve:
      - serializedVersion: 2
        time: 0
        value: 1
        inSlope: -0.09196669
        outSlope: -0.09196669
        tangentMode: 34
      - serializedVersion: 2
        time: 0.6
        value: 0.94482
        inSlope: 0.36786678
        outSlope: 0.36786678
        tangentMode: 34
      - serializedVersion: 2
        time: 0.6666667
        value: 1
        inSlope: 0.82770026
        outSlope: 0.82770026
        tangentMode: 34
      m_PreInfinity: 2
      m_PostInfinity: 2
      m_RotationOrder: 4
    attribute: m_Color.r
    path: EnemySprite
    classID: 212
    script: {fileID: 0}
  - curve:
      serializedVersion: 2
      m_Curve:
      - serializedVersion: 2
        time: 0
        value: 1
        inSlope: 0
        outSlope: 0
        tangentMode: 34
      - serializedVersion: 2
        time: 0.6
        value: 1
        inSlope: 0
        outSlope: 0
        tangentMode: 34
      - serializedVersion: 2
        time: 0.6666667
        value: 1
        inSlope: 0
        outSlope: 0
        tangentMode: 34
      m_PreInfinity: 2
      m_PostInfinity: 2
      m_RotationOrder: 4
    attribute: m_Color.g
    path: EnemySprite
    classID: 212
    script: {fileID: 0}
  - curve:
      serializedVersion: 2
      m_Curve:
      - serializedVersion: 2
        time: 0
        value: 1
        inSlope: -1.6666666
        outSlope: -1.6666666
        tangentMode: 34
      - serializedVersion: 2
        time: 0.6
        value: 0
        inSlope: 6.666667
        outSlope: 6.666667
        tangentMode: 34
      - serializedVersion: 2
        time: 0.6666667
        value: 1
        inSlope: 15.000001
        outSlope: 15.000001
        tangentMode: 34
      m_PreInfinity: 2
      m_PostInfinity: 2
      m_RotationOrder: 4
    attribute: m_Color.b
    path: EnemySprite
    classID: 212
    script: {fileID: 0}
  m_PPtrCurves:
  - curve:
    - time: 0
      value: {fileID: 21300000, guid: 719aadbe6df13a3439346a249cad0e23, type: 3}
    - time: 0.53333336
      value: {fileID: 21300000, guid: 719aadbe6df13a3439346a249cad0e23, type: 3}
    - time: 0.6
      value: {fileID: 21300000, guid: 4f76938a7746d2f4f995ba6a58efead8, type: 3}
    - time: 0.6666667
      value: {fileID: 21300000, guid: f1f7f31f7345fcb4dbf1a49588aca5a1, type: 3}
    - time: 0.73333335
      value: {fileID: 0}
    attribute: m_Sprite
    path: EnemySprite
    classID: 212
    script: {fileID: 0}
  m_SampleRate: 30
  m_WrapMode: 0
  m_Bounds:
    m_Center: {x: 0, y: 0, z: 0}
    m_Extent: {x: 0, y: 0, z: 0}
  m_ClipBindingConstant:
    genericBindings:
    - serializedVersion: 2
      path: 2754609136
      attribute: 2526845255
      script: {fileID: 0}
      typeID: 212
      customType: 0
      isPPtrCurve: 0
    - serializedVersion: 2
      path: 2754609136
      attribute: 2334886179
      script: {fileID: 0}
      typeID: 212
      customType: 0
      isPPtrCurve: 0
    - serializedVersion: 2
      path: 2754609136
      attribute: 0
      script: {fileID: 0}
      typeID: 212
      customType: 23
      isPPtrCurve: 1
    - serializedVersion: 2
      path: 2754609136
      attribute: 4215373228
      script: {fileID: 0}
      typeID: 212
      customType: 0
      isPPtrCurve: 0
    pptrCurveMapping:
    - {fileID: 21300000, guid: 719aadbe6df13a3439346a249cad0e23, type: 3}
    - {fileID: 21300000, guid: 719aadbe6df13a3439346a249cad0e23, type: 3}
    - {fileID: 21300000, guid: 4f76938a7746d2f4f995ba6a58efead8, type: 3}
    - {fileID: 21300000, guid: f1f7f31f7345fcb4dbf1a49588aca5a1, type: 3}
    - {fileID: 0}
  m_AnimationClipSettings:
    serializedVersion: 2
    m_AdditiveReferencePoseClip: {fileID: 0}
    m_AdditiveReferencePoseTime: 0
    m_StartTime: 0
    m_StopTime: 0.7666667
    m_OrientationOffsetY: 0
    m_Level: 0
    m_CycleOffset: 0
    m_HasAdditiveReferencePose: 0
    m_LoopTime: 0
    m_LoopBlend: 0
    m_LoopBlendOrientation: 0
    m_LoopBlendPositionY: 0
    m_LoopBlendPositionXZ: 0
    m_KeepOriginalOrientation: 0
    m_KeepOriginalPositionY: 1
    m_KeepOriginalPositionXZ: 0
    m_HeightFromFeet: 0
    m_Mirror: 0
  m_EditorCurves:
  - curve:
      serializedVersion: 2
      m_Curve:
      - serializedVersion: 2
        time: 0
        value: 1
        inSlope: -0.09196669
        outSlope: -0.09196669
        tangentMode: 34
      - serializedVersion: 2
        time: 0.6
        value: 0.94482
        inSlope: 0.36786678
        outSlope: 0.36786678
        tangentMode: 34
      - serializedVersion: 2
        time: 0.6666667
        value: 1
        inSlope: 0.82770026
        outSlope: 0.82770026
        tangentMode: 34
      m_PreInfinity: 2
      m_PostInfinity: 2
      m_RotationOrder: 4
    attribute: m_Color.r
    path: EnemySprite
    classID: 212
    script: {fileID: 0}
  - curve:
      serializedVersion: 2
      m_Curve:
      - serializedVersion: 2
        time: 0
        value: 1
        inSlope: 0
        outSlope: 0
        tangentMode: 34
      - serializedVersion: 2
        time: 0.6
        value: 1
        inSlope: 0
        outSlope: 0
        tangentMode: 34
      - serializedVersion: 2
        time: 0.6666667
        value: 1
        inSlope: 0
        outSlope: 0
        tangentMode: 34
      m_PreInfinity: 2
      m_PostInfinity: 2
      m_RotationOrder: 4
    attribute: m_Color.g
    path: EnemySprite
    classID: 212
    script: {fileID: 0}
  - curve:
      serializedVersion: 2
      m_Curve:
      - serializedVersion: 2
        time: 0
        value: 1
        inSlope: -1.6666666
        outSlope: -1.6666666
        tangentMode: 34
      - serializedVersion: 2
        time: 0.6
        value: 0
        inSlope: 6.666667
        outSlope: 6.666667
        tangentMode: 34
      - serializedVersion: 2
        time: 0.6666667
        value: 1
        inSlope: 15.000001
        outSlope: 15.000001
        tangentMode: 34
      m_PreInfinity: 2
      m_PostInfinity: 2
      m_RotationOrder: 4
    attribute: m_Color.b
    path: EnemySprite
    classID: 212
    script: {fileID: 0}
  m_EulerEditorCurves: []
  m_HasGenericRootTransform: 0
  m_HasMotionFloatCurves: 0
  m_GenerateMotionCurves: 0
  m_Events:
  - time: 0.6
    functionName: ActionFire
    data: 
    objectReferenceParameter: {fileID: 0}
    floatParameter: 0
    intParameter: 0
    messageOptions: 0
  - time: 0.6333333
    functionName: EnemyC_AttackSE
    data: 
    objectReferenceParameter: {fileID: 0}
    floatParameter: 0
    intParameter: 0
    messageOptions: 0
